n°;valid;K_A1;K_A1:B_To_A1;K_A1:C_To_A1;K_A1:B_To_A1:C_To_A1;K_B;K_B:A1_To_B;K_B:D_To_B;K_B:A1_To_B:D_To_B;K_C;K_C:A1_To_C;K_C:B_To_C;K_C:A1_To_C:B_To_C;K_D;K_D:C_To_D;Error explanation
;;0..0;0..0;1..1;2..2;0..0;2..2;1..1;2..2;0..0;1..1;2..2;2..2;0..1;0..1;;
1;OK;0;0;1;2;0;2;1;2;0;1;2;2;1;1;
2;KO;0;0;1;2;0;2;1;2;0;1;2;2;0;0;"[B_oscille_02]"
3;KO;0;0;1;2;0;2;1;2;0;1;2;2;0;1;"[B_oscille_02]"
