
VAR

A1 = 0 2 ;
B = 0 2 ;
C = 0 2 ;
D = 0 1 ;

REG

B_To_A1 [(!(B>=2))]=>
 A1
 ;
C_To_A1 [(!(C>=1))]=>
 A1
 ;
A1_To_B [(!(A1>=2))]=>
 B
 ;
D_To_B [(!(D>=1))]=>
 B
 ;
B_To_C [(!(B>=1))]=>
 C
 ;
A1_To_D [(!(A1>=1))]=>
 D
 ;
C_To_D [(!(C>=2))]=>
 D
 ;

PARA

# Parameters for A1

K_A1 = 0;
K_A1:B_To_A1 = 1;
K_A1:C_To_A1 = 2;
K_A1:B_To_A1:C_To_A1 = 2;


# Parameters for B

K_B = 0;
K_B:A1_To_B = 1;
K_B:D_To_B = 0;
K_B:A1_To_B:D_To_B = 2;


# Parameters for C

K_C = 0;
K_C:B_To_C = 1..2;


# Parameters for D

K_D = 0..1;
K_D:A1_To_D = 0..1;
K_D:C_To_D = 0..1;
K_D:A1_To_D:C_To_D = 0..1;


NO CTL FORMULA
FAIRCTL
[
(((AF(((B=0)&AF(((C>=1)&AF(((A1=0)&AF(((B=2)&AF(((C=0)&AF(((A1>=1)&AF((B=0))))))))))))))|AF(((B=0)&AF(((C=2)&AF(((A1=0)&AF(((B=2)&AF(((C=1)&AF(((A1>=1)&AF((B=0)))))))))))))))|AF(((B=0)&AF(((C>=1)&AF(((A1=1)&AF(((B=2)&AF(((C=0)&AF(((A1=2)&AF((B=0)))))))))))))))|AF(((B=0)&AF(((C=2)&AF(((A1=1)&AF(((B=2)&AF(((C=1)&AF(((A1=2)&AF((B=0))))))))))))))),
]

======================
# Number of effective parameterizations : 12
======================




########### Result of model checking ###########
# Total number of models: 12
# Selected models: 8
# Computation time: 609ms
Models have been written in ./graphe_12_v7.csv
################################################

