0;1;2;3;4;5;6;7;8;9;10;11;12;13
n°;valid;K_A1;K_A1:C_To_A1;K_B;K_B:A1_To_B;K_B:D_To_B;K_B:A1_To_B:D_To_B;K_C;K_C:B_To_C;K_D;K_D:A1_To_D;K_D:B_To_D;K_D:A1_To_D:B_To_D
3;OK;0;2;0;1;0;2;0;1;0;0;0;1
4;OK;1;2;0;1;0;2;0;1;0;0;0;1
